5 Merging Data – Applied Business Research
…
#Looking at Lockheed Martin in our financial statement data
fs_data |> filter(cstat_ticker=="LMT") |> select(cstat_ticker,conm,cik,datadate)

# A tibble: 57 × 4
   cstat_ticker conm                 cik        datadate  
   <chr>        <chr>                <chr>      <date>    
 1 LMT          LOCKHEED MARTIN CORP 0000936468 1968-12-31
 2 LMT          LOCKHEED MARTIN CORP 0000936468 1969-12-31
 3 LMT          LOCKHEED MARTIN CORP 0000936468 1970-12-31
 4 LMT          LOCKHEED MARTIN CORP 0000936468 1971-12-31
 5 LMT          LOCKHEED MARTIN CORP 0000936468 1972-12-31
 6 LMT          LOCKHEED MARTIN CORP 0000936468 1973-12-31
 7 LMT          LOCKHEED MARTIN CORP 0000936468 1974-12-31
 8 LMT          LOCKHEED MARTIN CORP 0000936468 1975-12-31
 9 LMT          LOCKHEED MARTIN CORP 0000936468 1976-12-31
10 LMT          LOCKHEED MARTIN CORP 0000936468 1977-12-31
# ℹ 47 more rows

#Looking at Lockheed Martin internal control opinions. Notice the two observations per year and the ineffective control opinion in 2016.
ic_data |> filter(company_fkey=="0000936468") |> select(ic_op_fkey,ic_op_type,form_fkey,fye_ic_op,fy_ic_op,ic_is_effective) |>
  filter(fy_ic_op>2013) |> arrange(fye_ic_op)

# A tibble: 23 × 6
   ic_op_fkey ic_op_type form_fkey fye_ic_op  fy_ic_op ic_is_effective
        <dbl> <chr>      <chr>     <date>        <dbl> <chr>          
 1     120544 a          10-K      2014-12-31     2014 Y              
 2     120545 m          10-K      2014-12-31     2014 Y              
 3     134259 a          10-K      2015-12-31     2015 Y              
 4     134260 m          10-K      2015-12-31     2015 Y              
 5     144163 a          10-K      2016-12-31     2016 N              
 6     144164 m          10-K      2016-12-31     2016 N              
 7     155293 a          10-K      2017-12-31     2017 Y              
 8     155294 m          10-K      2017-12-31     2017 Y              
 9     156088 a          10-K/A    2017-12-31     2017 Y              
10     166277 a          10-K      2018-12-31     2018 Y              
# ℹ 13 more rows
…
`summarise()` has grouped output by 'gvkey'. You can override using the
`.groups` argument.

#Let's merge that into our example data
fs_data4 <- fs_data3 |> 
  left_join(sent2,by=c("gvkey","datadate"))

#Number of missing monthly sentiment values over years - good after 1979
fs_data4 |> mutate(missing_sent = if_else(is.na(avg_cons_sent),1,0)) |> group_by(year(datadate)) |> summarise(missing = sum(missing_sent) )

# A tibble: 58 × 2
   `year(datadate)` missing
              <dbl>   <dbl>
 1             1968    2593
 2             1969    3280
 3             1970    3331
 4             1971    3385
 5             1972    3492
 6             1973    3684
 7             1974    5108
 8             1975    5279
 9             1976    5268
10             1977    5233
# ℹ 48 more rows
…
