4 Obtaining and Merging Data – Applied Business Research
…
data1 <- read_parquet(glue("{data_path}/raw-data-R.parquet"))

#note: if you choose to collect your raw data in SAS or Stata
# these could easily be read in using haven::read_dta() or haven::read_sas()

Some ways to check data at the first stage.

# Some quick peeks at the data -------------------------------------------------

#since the data is structured as a dplyr tibble, just calling its name
#will preview the first 10 rows (similar to a head function)
data1 

# A tibble: 303,076 × 25
   conm  gvkey datadate   fyear   fyr cstat_cusip cik   cstat_ticker  sich    ib
   <chr> <chr> <date>     <int> <int> <chr>       <chr> <chr>        <int> <dbl>
 1 A & … 0010… 1968-12-31  1968    12 000032102   <NA>  AE.2            NA 0.347
 2 A & … 0010… 1969-12-31  1969    12 000032102   <NA>  AE.2            NA 1.84 
 3 A & … 0010… 1970-12-31  1970    12 000032102   <NA>  AE.2            NA 1.88 
 4 A & … 0010… 1971-12-31  1971    12 000032102   <NA>  AE.2            NA 0.138
 5 A & … 0010… 1972-12-31  1972    12 000032102   <NA>  AE.2            NA 1.55 
 6 A & … 0010… 1973-12-31  1973    12 000032102   <NA>  AE.2            NA 1.86 
 7 A & … 0010… 1974-12-31  1974    12 000032102   <NA>  AE.2            NA 1.56 
 8 A & … 0010… 1975-12-31  1975    12 000032102   <NA>  AE.2            NA 2.28 
 9 A & … 0010… 1976-12-31  1976    12 000032102   <NA>  AE.2            NA 3.43 
10 A & … 0010… 1977-12-31  1977    12 000032102   <NA>  AE.2            NA 1.93 
# ℹ 303,066 more rows
# ℹ 15 more variables: spi <dbl>, at <dbl>, xrd <dbl>, ceq <dbl>, sale <dbl>,
#   csho <dbl>, prcc_f <dbl>, sic <chr>, fic <chr>, gind <chr>, sic4 <dbl>,
#   sic2 <dbl>, calyear <dbl>, mve <dbl>, e <dbl>
…
Now we need to merge the SPY data with the recession data.

merged_data <- mkt_index |>
  #I am going to select only the columns I need from   #the FRED data
  inner_join(fred_data |> 
               select(month,year,recession=value),
             by=join_by(month,year))

# check to make sure it is still unique by month 
merged_data |> 
  group_by(month,year) |> 
  count() |> 
  arrange(-n)

# A tibble: 360 × 3
# Groups:   month, year [360]
   month  year     n
   <dbl> <dbl> <int>
 1     1  1995     1
 2     1  1996     1
 3     1  1997     1
 4     1  1998     1
 5     1  1999     1
 6     1  2000     1
 7     1  2001     1
 8     1  2002     1
 9     1  2003     1
10     1  2004     1
# ℹ 350 more rows
…
